%!PS-Adobe-3.0 EPSF-3.0
%%Creator: cairo 1.14.2 (http://cairographics.org)
%%CreationDate: Thu Apr 21 09:44:45 2016
%%Pages: 1
%%DocumentData: Clean7Bit
%%LanguageLevel: 2
%%BoundingBox: 0 0 21 16
%%EndComments
%%BeginProlog
save
50 dict begin
/q { gsave } bind def
/Q { grestore } bind def
/cm { 6 array astore concat } bind def
/w { setlinewidth } bind def
/J { setlinecap } bind def
/j { setlinejoin } bind def
/M { setmiterlimit } bind def
/d { setdash } bind def
/m { moveto } bind def
/l { lineto } bind def
/c { curveto } bind def
/h { closepath } bind def
/re { exch dup neg 3 1 roll 5 3 roll moveto 0 rlineto
      0 exch rlineto 0 rlineto closepath } bind def
/S { stroke } bind def
/f { fill } bind def
/f* { eofill } bind def
/n { newpath } bind def
/W { clip } bind def
/W* { eoclip } bind def
/BT { } bind def
/ET { } bind def
/pdfmark where { pop globaldict /?pdfmark /exec load put }
    { globaldict begin /?pdfmark /pop load def /pdfmark
    /cleartomark load def end } ifelse
/BDC { mark 3 1 roll /BDC pdfmark } bind def
/EMC { mark /EMC pdfmark } bind def
/cairo_store_point { /cairo_point_y exch def /cairo_point_x exch def } def
/Tj { show currentpoint cairo_store_point } bind def
/TJ {
  {
    dup
    type /stringtype eq
    { show } { -0.001 mul 0 cairo_font_matrix dtransform rmoveto } ifelse
  } forall
  currentpoint cairo_store_point
} bind def
/cairo_selectfont { cairo_font_matrix aload pop pop pop 0 0 6 array astore
    cairo_font exch selectfont cairo_point_x cairo_point_y moveto } bind def
/Tf { pop /cairo_font exch def /cairo_font_matrix where
      { pop cairo_selectfont } if } bind def
/Td { matrix translate cairo_font_matrix matrix concatmatrix dup
      /cairo_font_matrix exch def dup 4 get exch 5 get cairo_store_point
      /cairo_font where { pop cairo_selectfont } if } bind def
/Tm { 2 copy 8 2 roll 6 array astore /cairo_font_matrix exch def
      cairo_store_point /cairo_font where { pop cairo_selectfont } if } bind def
/g { setgray } bind def
/rg { setrgbcolor } bind def
/d1 { setcachedevice } bind def
%%EndProlog
%%BeginSetup
%%EndSetup
%%Page: 1 1
%%BeginPageSetup
%%PageBoundingBox: 0 0 21 16
%%EndPageSetup
q 0 0 21 16 rectclip q
0 g
20.559 11.762 m 17.922 14.398 14.398 16 10.398 16 c 6.398 16 2.801 14.398
 0.238 11.762 c 0.078 11.602 0 11.441 0 11.199 c 0 10.961 0.078 10.801 0.238
 10.641 c 1.359 9.52 l 1.68 9.199 2.16 9.199 2.48 9.52 c 4.48 11.52 7.281
 12.801 10.398 12.801 c 13.52 12.801 16.32 11.52 18.32 9.52 c 18.641 9.199
 19.121 9.199 19.441 9.52 c 20.559 10.641 l 20.719 10.801 20.801 10.961 
20.801 11.199 c 20.801 11.441 20.719 11.68 20.559 11.762 c h
20.559 11.762 m f
10.398 9.602 m 8.16 9.602 6.238 8.719 4.801 7.281 c 4.48 6.961 4.48 6.48
 4.801 6.16 c 5.922 5.039 l 6.238 4.719 6.719 4.719 7.039 5.039 c 7.922 
5.922 9.121 6.398 10.398 6.398 c 11.68 6.398 12.879 5.84 13.762 5.039 c 
14.078 4.719 14.559 4.719 14.879 5.039 c 16 6.16 l 16.32 6.48 16.32 6.961
 16 7.281 c 14.559 8.719 12.641 9.602 10.398 9.602 c h
10.398 9.602 m f
12 1.602 m 12 0.715 11.285 0 10.398 0 c 9.516 0 8.801 0.715 8.801 1.602
 c 8.801 2.484 9.516 3.199 10.398 3.199 c 11.285 3.199 12 2.484 12 1.602
 c h
12 1.602 m f
Q Q
showpage
%%Trailer
end restore
%%EOF
